^C:\USERS\ADMIN\DOCUMENTS\VISUAL STUDIO 2013\PROJECTS\CSHARP-DIATOM-SEGMENTATION-APP\CSHARP-EDGE-DRAWING-WRAPPER\APP.RC
C:\USERS\ADMIN\DOCUMENTS\VISUAL STUDIO 2013\PROJECTS\CSHARP-DIATOM-SEGMENTATION-APP\CSHARP-EDGE-DRAWING-WRAPPER\RESOURCE.H
C:\USERS\ADMIN\DOCUMENTS\VISUAL STUDIO 2013\PROJECTS\CSHARP-DIATOM-SEGMENTATION-APP\CSHARP-EDGE-DRAWING-WRAPPER\APP.ICO
