^C:\USERS\ADMIN\DOCUMENTS\VISUAL STUDIO 2013\PROJECTS\CSHARP-DIATOM-SEGMENTATION-APP\CPLUSPLUS-SMOOTH-CONTOURS-WRAPPER\STDAFX.CPP
C:\WINDOWS\GLOBALIZATION\SORTING\SORTDEFAULT.NLS
C:\PROGRAM FILES (X86)\MICROSOFT VISUAL STUDIO 14.0\VC\BIN\1033\CLUI.DLL
C:\WINDOWS\MICROSOFT.NET\FRAMEWORK\V2.0.50727\MSCORWKS.DLL
C:\WINDOWS\MICROSOFT.NET\FRAMEWORK\V4.0.30319\CLR.DLL
C:\PROGRAM FILES (X86)\MICROSOFT VISUAL STUDIO 14.0\VC\BIN\CL.EXE.CONFIG
C:\WINDOWS\SYSTEM32\TZRES.DLL
C:\PROGRAM FILES (X86)\REFERENCE ASSEMBLIES\MICROSOFT\FRAMEWORK\.NETFRAMEWORK\V4.5.2\MSCORLIB.DLL
C:\PROGRAM FILES (X86)\REFERENCE ASSEMBLIES\MICROSOFT\FRAMEWORK\.NETFRAMEWORK\V4.5.2\SYSTEM.DATA.DLL
C:\PROGRAM FILES (X86)\REFERENCE ASSEMBLIES\MICROSOFT\FRAMEWORK\.NETFRAMEWORK\V4.5.2\SYSTEM.DLL
C:\PROGRAM FILES (X86)\REFERENCE ASSEMBLIES\MICROSOFT\FRAMEWORK\.NETFRAMEWORK\V4.5.2\SYSTEM.XML.DLL
C:\USERS\ADMIN\DOCUMENTS\VISUAL STUDIO 2013\PROJECTS\CSHARP-DIATOM-SEGMENTATION-APP\CPLUSPLUS-SMOOTH-CONTOURS-WRAPPER\STDAFX.H
^C:\USERS\ADMIN\DOCUMENTS\VISUAL STUDIO 2013\PROJECTS\CSHARP-DIATOM-SEGMENTATION-APP\CPLUSPLUS-SMOOTH-CONTOURS-WRAPPER\ASSEMBLYINFO.CPP
C:\USERS\ADMIN\DOCUMENTS\VISUAL STUDIO 2013\PROJECTS\CSHARP-DIATOM-SEGMENTATION-APP\CPLUSPLUS-SMOOTH-CONTOURS-WRAPPER\DEBUG\SMOOTH-CONTOURS-WRAPPER.PCH
C:\PROGRAM FILES (X86)\MICROSOFT VISUAL STUDIO 14.0\VC\BIN\CL.EXE.CONFIG
C:\WINDOWS\MICROSOFT.NET\FRAMEWORK\V4.0.30319\CLR.DLL
C:\PROGRAM FILES (X86)\REFERENCE ASSEMBLIES\MICROSOFT\FRAMEWORK\.NETFRAMEWORK\V4.5.2\MSCORLIB.DLL
C:\PROGRAM FILES (X86)\REFERENCE ASSEMBLIES\MICROSOFT\FRAMEWORK\.NETFRAMEWORK\V4.5.2\SYSTEM.DATA.DLL
C:\PROGRAM FILES (X86)\REFERENCE ASSEMBLIES\MICROSOFT\FRAMEWORK\.NETFRAMEWORK\V4.5.2\SYSTEM.DLL
C:\PROGRAM FILES (X86)\REFERENCE ASSEMBLIES\MICROSOFT\FRAMEWORK\.NETFRAMEWORK\V4.5.2\SYSTEM.XML.DLL
C:\USERS\ADMIN\DOCUMENTS\VISUAL STUDIO 2013\PROJECTS\CSHARP-DIATOM-SEGMENTATION-APP\CPLUSPLUS-SMOOTH-CONTOURS-WRAPPER\DEBUG\STDAFX.OBJ
^C:\USERS\ADMIN\DOCUMENTS\VISUAL STUDIO 2013\PROJECTS\CSHARP-DIATOM-SEGMENTATION-APP\CPLUSPLUS-SMOOTH-CONTOURS-WRAPPER\SMOOTH-CONTOURS-WRAPPER.CPP
C:\USERS\ADMIN\DOCUMENTS\VISUAL STUDIO 2013\PROJECTS\CSHARP-DIATOM-SEGMENTATION-APP\CPLUSPLUS-SMOOTH-CONTOURS-WRAPPER\DEBUG\SMOOTH-CONTOURS-WRAPPER.PCH
C:\PROGRAM FILES (X86)\MICROSOFT VISUAL STUDIO 14.0\VC\BIN\CL.EXE.CONFIG
C:\PROGRAM FILES (X86)\REFERENCE ASSEMBLIES\MICROSOFT\FRAMEWORK\.NETFRAMEWORK\V4.5.2\MSCORLIB.DLL
C:\PROGRAM FILES (X86)\REFERENCE ASSEMBLIES\MICROSOFT\FRAMEWORK\.NETFRAMEWORK\V4.5.2\SYSTEM.DATA.DLL
C:\PROGRAM FILES (X86)\REFERENCE ASSEMBLIES\MICROSOFT\FRAMEWORK\.NETFRAMEWORK\V4.5.2\SYSTEM.DLL
C:\PROGRAM FILES (X86)\REFERENCE ASSEMBLIES\MICROSOFT\FRAMEWORK\.NETFRAMEWORK\V4.5.2\SYSTEM.XML.DLL
C:\USERS\ADMIN\DOCUMENTS\VISUAL STUDIO 2013\PROJECTS\CSHARP-DIATOM-SEGMENTATION-APP\CPLUSPLUS-SMOOTH-CONTOURS-WRAPPER\DEBUG\STDAFX.OBJ
C:\USERS\ADMIN\DOCUMENTS\VISUAL STUDIO 2013\PROJECTS\CSHARP-DIATOM-SEGMENTATION-APP\CPLUSPLUS-SMOOTH-CONTOURS-WRAPPER\SMOOTH-CONTOURS-WRAPPER.H
C:\USERS\ADMIN\DOCUMENTS\VISUAL STUDIO 2013\PROJECTS\CSHARP-DIATOM-SEGMENTATION-APP\CPLUSPLUS-SMOOTH-CONTOURS\SMOOTH_CONTOURS.H
C:\USERS\ADMIN\DOCUMENTS\VISUAL STUDIO 2013\PROJECTS\CSHARP-DIATOM-SEGMENTATION-APP\CPLUSPLUS-SMOOTH-CONTOURS\SMOOTH_CONTOURS.C
C:\PROGRAM FILES (X86)\WINDOWS KITS\10\INCLUDE\10.0.10150.0\UCRT\STDIO.H
C:\PROGRAM FILES (X86)\WINDOWS KITS\10\INCLUDE\10.0.10150.0\UCRT\CORECRT.H
C:\PROGRAM FILES (X86)\MICROSOFT VISUAL STUDIO 14.0\VC\INCLUDE\VCRUNTIME.H
C:\PROGRAM FILES (X86)\MICROSOFT VISUAL STUDIO 14.0\VC\INCLUDE\SAL.H
C:\PROGRAM FILES (X86)\MICROSOFT VISUAL STUDIO 14.0\VC\INCLUDE\CONCURRENCYSAL.H
C:\PROGRAM FILES (X86)\MICROSOFT VISUAL STUDIO 14.0\VC\INCLUDE\VADEFS.H
C:\PROGRAM FILES (X86)\WINDOWS KITS\10\INCLUDE\10.0.10150.0\UCRT\CORECRT_WSTDIO.H
C:\PROGRAM FILES (X86)\WINDOWS KITS\10\INCLUDE\10.0.10150.0\UCRT\CORECRT_STDIO_CONFIG.H
C:\PROGRAM FILES (X86)\WINDOWS KITS\10\INCLUDE\10.0.10150.0\UCRT\STDLIB.H
C:\PROGRAM FILES (X86)\WINDOWS KITS\10\INCLUDE\10.0.10150.0\UCRT\CORECRT_MALLOC.H
C:\PROGRAM FILES (X86)\WINDOWS KITS\10\INCLUDE\10.0.10150.0\UCRT\CORECRT_SEARCH.H
C:\PROGRAM FILES (X86)\WINDOWS KITS\10\INCLUDE\10.0.10150.0\UCRT\STDDEF.H
C:\PROGRAM FILES (X86)\WINDOWS KITS\10\INCLUDE\10.0.10150.0\UCRT\CORECRT_WSTDLIB.H
C:\PROGRAM FILES (X86)\MICROSOFT VISUAL STUDIO 14.0\VC\INCLUDE\LIMITS.H
C:\PROGRAM FILES (X86)\WINDOWS KITS\10\INCLUDE\10.0.10150.0\UCRT\MATH.H
C:\PROGRAM FILES (X86)\WINDOWS KITS\10\INCLUDE\10.0.10150.0\UCRT\FLOAT.H
^C:\USERS\ADMIN\APPDATA\LOCAL\TEMP\.NETFRAMEWORK,VERSION=V4.5.2.ASSEMBLYATTRIBUTES.CPP
C:\WINDOWS\GLOBALIZATION\SORTING\SORTDEFAULT.NLS
C:\PROGRAM FILES (X86)\MICROSOFT VISUAL STUDIO 14.0\VC\BIN\1033\CLUI.DLL
C:\WINDOWS\MICROSOFT.NET\FRAMEWORK\V2.0.50727\MSCORWKS.DLL
C:\WINDOWS\MICROSOFT.NET\FRAMEWORK\V4.0.30319\CLR.DLL
C:\PROGRAM FILES (X86)\MICROSOFT VISUAL STUDIO 14.0\VC\BIN\CL.EXE.CONFIG
C:\WINDOWS\SYSTEM32\TZRES.DLL
C:\WINDOWS\MICROSOFT.NET\FRAMEWORK\V4.0.30319\MSCORLIB.DLL
